NYPD Shooting Incidents Data Analysis
…
3.5 Is the number of shootings dropped over the past 15 years?

month_count <- shooting %>% 
    group_by(year_month) %>% # group by year and by month
    summarise(count = n()) # count the number of observations in each month
month_count

## # A tibble: 180 x 2
##    year_month count
##    <chr>      <int>
##  1 2006-01      127
##  2 2006-02       96
##  3 2006-03      102
##  4 2006-04      156
##  5 2006-05      170
##  6 2006-06      164
##  7 2006-07      226
##  8 2006-08      239
##  9 2006-09      187
## 10 2006-10      172
## #  with 170 more rows
…
